\beamer@endinputifotherversion {3.06pt}
\select@language {brazil}
\beamer@sectionintoc {1}{Introdu\c c\~ao}{2}{0}{1}
\beamer@sectionintoc {2}{The web data}{12}{0}{2}
\beamer@sectionintoc {3}{Conclus\~ao}{13}{0}{3}
