\beamer@endinputifotherversion {3.06pt}
\select@language {brazil}
\beamer@sectionintoc {1}{Introduction}{2}{0}{1}
\beamer@subsectionintoc {1}{1}{As cinco transforma\c c\~oes}{2}{0}{1}
\beamer@subsectionintoc {1}{2}{A new approach for HCI}{18}{0}{1}
